{
    "cli": {
        "version": ">= 0.54.1"
    },
    "build": {
        "development": {
            "developmentClient": true,
            "distribution": "internal"
        },
        "preview": {
            "distribution": "internal"
        },
        "production": {
            "android": {
                "buildType": "apk"
            }
        }
    },
    "submit": {
        "production": {}
    }
}